…
atussum_0318 %>% 
   select(TUCASEID, TUFNWGTP, activities) %>%
   pivot_longer(cols = -c('TUCASEID', 'TUFNWGTP'),
                names_to = "activity",
                values_to = 'time') %>%
   group_by(activity) %>% 
   summarize(weighted.minutes = sum(TUFNWGTP * time) / sum(TUFNWGTP)) %>%
   ungroup()
```
```
# A tibble: 431 x 2
   activity weighted.minutes
   <chr>               <dbl>
 1 t010101         518.     
 2 t010102           3.78   
 3 t010199           0.00520
 4 t010201          40.6    
 5 t010299           0.0439 
 6 t010301           4.62   
 7 t010399           0.166  
 8 t010401           0.546  
 9 t010499           0.0151 
10 t010501           0.00203
# … with 421 more rows
```
…
atussum_0318 %>% 
  select(TUCASEID, TUFNWGTP, groups, activities) %>%
  pivot_longer(cols = -c('TUCASEID', 'TUFNWGTP', groups),
               names_to = "activity",
               values_to = 'time') %>%
  group_by_at(vars(activity, groups)) %>% 
  summarize(weighted.minutes = sum(TUFNWGTP * time) / sum(TUFNWGTP)) %>%
  ungroup()
```
```
# A tibble: 57,754 x 4
   activity TESEX TEAGE weighted.minutes
   <chr>    <dbl> <dbl>            <dbl>
 1 t010101      1    15             580.
 2 t010101      1    16             567.
 3 t010101      1    17             572.
 4 t010101      1    18             578.
 5 t010101      1    19             569.
 6 t010101      1    20             550.
 7 t010101      1    21             540.
 8 t010101      1    22             541.
 9 t010101      1    23             544.
10 t010101      1    24             532.
# … with 57,744 more rows
```
<br>

And finally add an optional argument to simplify the output so it doesn't return just cryptic activity codes. This aggregates the activities into higher level descriptions in the `descriptions` dataframe.
```
# data frame indicating how to aggregate the ^t* activities
simplify <- descriptions
print(simplify)
```
```
# A tibble: 431 x 2
   activity description  
   <chr>    <chr>        
 1 t010101  Sleep        
 2 t010102  Sleep        
 3 t010199  Sleep        
 4 t010201  Personal Care
 5 t010299  Personal Care
 6 t010301  Personal Care
 7 t010399  Personal Care
 8 t010401  Personal Care
 9 t010499  Personal Care
10 t010501  Personal Care
# … with 421 more rows
```
…
               names_to = "activity",
               values_to = 'time') %>%
  group_by_at(vars(activity, groups)) %>% 
  summarize(weighted.minutes = sum(TUFNWGTP * time) / sum(TUFNWGTP)) %>%
  ungroup() %>% 
  left_join(x = .,
            y = simplify,
            by = 'activity') %>% 
  select(activity = description, groups, weighted.minutes) %>% 
  group_by_at(vars(activity, groups)) %>%
  summarize(weighted.minutes = sum(weighted.minutes)) %>% 
  ungroup()
```
```
# A tibble: 2,010 x 4
   activity                    TESEX TEAGE weighted.minutes
   <chr>                       <dbl> <dbl>            <dbl>
 1 Caring For Household Member     1    15             5.33
 2 Caring For Household Member     1    16             6.40
 3 Caring For Household Member     1    17             3.93
 4 Caring For Household Member     1    18             8.28
 5 Caring For Household Member     1    19             8.40
 6 Caring For Household Member     1    20             5.45
 7 Caring For Household Member     1    21             6.74
 8 Caring For Household Member     1    22             7.98
 9 Caring For Household Member     1    23            10.2 
10 Caring For Household Member     1    24            14.4 
# … with 2,000 more rows
```
<br>

Finally, we can wrap it in a function call `get_minutes()`. The magic of this functional approach is we can get time-use estimates in as few lines of code as possible:

```
television.codes <- c('t120303', 't120304')
get_minutes(atussum_0318, groups = c('TUYEAR', 'TEAGE'), 
            activities = television.codes, simplify = TRUE)
```
```
# A tibble: 1,070 x 4
   activity               TUYEAR TEAGE weighted.minutes
   <chr>                   <dbl> <dbl>            <dbl>
 1 All activites provided   2003    15             137.
 2 All activites provided   2003    16             149.
 3 All activites provided   2003    17             127.
 4 All activites provided   2003    18             138.
 5 All activites provided   2003    19             153.
 6 All activites provided   2003    20             118.
 7 All activites provided   2003    21             130.
 8 All activites provided   2003    22             134.
 9 All activites provided   2003    23             132.
10 All activites provided   2003    24             156.
# … with 1,060 more rows
```
…
